{
    "KPlugin": {
        "Description": "Provides debugger integration",
        "Description[bg]": "Интеграция на програма за трасиране",
        "Description[ca@valencia]": "Proporciona la integració del depurador",
        "Description[ca]": "Proporciona la integració del depurador",
        "Description[en_GB]": "Provides debugger integration",
        "Description[es]": "Proporciona integración con el depurador",
        "Description[eu]": "Araztailearen integrazioa ematen du",
        "Description[gl]": "Fornece información de depuración",
        "Description[ia]": "Forni integration de cribrator",
        "Description[it]": "Fornisce l'integrazione col debugger",
        "Description[nl]": "Biedt integratie van debugger",
        "Description[pt]": "Oferece a integração com o depurador",
        "Description[sl]": "Zagotavlja integracijo razhroščevalnika",
        "Description[tr]": "Hata ayıklayıcı tümleştirmesi sağlar",
        "Description[uk]": "Надає інтеграцію із засобом діагностики",
        "Description[x-test]": "xxProvides debugger integrationxx",
        "Name": "Kate Debugger",
        "Name[bg]": "Програма за трасиране на Kate",
        "Name[ca@valencia]": "Depurador de Kate",
        "Name[ca]": "Depurador del Kate",
        "Name[en_GB]": "Kate Debugger",
        "Name[es]": "Depurador de Kate",
        "Name[eu]": "Kate araztailea",
        "Name[gl]": "Depurador de Kate",
        "Name[ia]": "Cribrator (Debugger) de Kate",
        "Name[it]": "Debugger di Kate",
        "Name[nl]": "Kate-debugger",
        "Name[pt]": "Depurador do Kate",
        "Name[sl]": "Kate razhroščevalnik",
        "Name[tr]": "Kate Hata Ayıklayıcısı",
        "Name[uk]": "Зневадник Kate",
        "Name[x-test]": "xxKate Debuggerxx",
        "ServiceTypes": [
            "KTextEditor/Plugin"
        ]
    }
}
